Nayan Jani’s Website - U.S. Job Satisfaction: Impacts of Tech, Remote Work & Covid
…
GSS<- GSS %>%
  mutate(use_tech = case_when(
    usetech >= 0 & usetech <= 25 ~ 1,
    usetech > 25 & usetech <= 50 ~ 2,
    usetech > 50 & usetech <= 75 ~ 3,
    usetech > 75 ~ 4,
  ))

GSS %>%               
  count(age) %>%                           
  mutate(percent = scales::percent(n / sum(n)))

# A tibble: 73 × 3
   age           n percent
   <dbl+lbl> <int> <chr>  
 1 18           44 0.747% 
 2 19           55 0.933% 
 3 20           63 1.069% 
 4 21           73 1.239% 
 5 22           86 1.460% 
 6 23           82 1.392% 
 7 24           83 1.409% 
 8 25           88 1.494% 
 9 26           89 1.511% 
10 27           85 1.443% 
# … with 63 more rows
…
